Single Cycle Processor/singlecycle.vcd
$date
	Mon Nov 27 16:00:07 2023
$end
$version
	Icarus Verilog
$end
$timescale
	1ps
$end
$scope module SingleCycleProcTest_v $end
$var wire 64 ! currentPC [63:0] $end
$var wire 64 " MemtoRegOut [63:0] $end
$var reg 1 # CLK $end
$var reg 1 $ Reset_L $end
$var reg 8 % passed [7:0] $end
$var reg 64 & startPC [63:0] $end
$var reg 16 ' watchdog [15:0] $end
$scope module uut $end
$var wire 1 # CLK $end
$var wire 1 $ resetl $end
$var wire 64 ( startpc [63:0] $end
$var wire 1 ) zero $end
$var wire 1 * uncond_branch $end
$var wire 3 + signop [2:0] $end
$var wire 5 , rn [4:0] $end
$var wire 5 - rm [4:0] $end
$var wire 1 . regwrite $end
$var wire 64 / regoutB [63:0] $end
$var wire 64 0 regoutA [63:0] $end
$var wire 1 1 reg2loc $end
$var wire 5 2 rd [4:0] $end
$var wire 11 3 opcode [10:0] $end
$var wire 64 4 nextpc [63:0] $end
$var wire 1 5 memwrite $end
$var wire 1 6 memread $end
$var wire 1 7 mem2reg $end
$var wire 32 8 instruction [31:0] $end
$var wire 64 9 extimm [63:0] $end
$var wire 1 : branch $end
$var wire 1 ; alusrc $end
$var wire 64 < aluout [63:0] $end
$var wire 4 = aluctrl [3:0] $end
$var wire 64 > ReadData [63:0] $end
$var wire 64 ? MemtoRegOut [63:0] $end
$var wire 64 @ ALUin [63:0] $end
$var reg 64 A currentpc [63:0] $end
$scope module ALU $end
$var wire 64 B BusB [63:0] $end
$var wire 1 ) Zero $end
$var wire 64 C BusA [63:0] $end
$var wire 4 D ALUCtrl [3:0] $end
$var reg 64 E BusW [63:0] $end
$upscope $end
$scope module DataMem $end
$var wire 64 F Address [63:0] $end
$var wire 1 # Clock $end
$var wire 64 G WriteData [63:0] $end
$var wire 1 5 MemoryWrite $end
$var wire 1 6 MemoryRead $end
$var reg 64 H ReadData [63:0] $end
$scope task initset $end
$var reg 64 I addr [63:0] $end
$var reg 64 J data [63:0] $end
$upscope $end
$upscope $end
$scope module NextPC $end
$var wire 1 ) ALUZero $end
$var wire 64 K CurrentPC [63:0] $end
$var wire 1 * Uncondbranch $end
$var wire 64 L SignExtImm64 [63:0] $end
$var wire 1 : Branch $end
$var reg 64 M NextPC [63:0] $end
$upscope $end
$scope module RegFile $end
$var wire 64 N BusW [63:0] $end
$var wire 1 # Clk $end
$var wire 5 O RA [4:0] $end
$var wire 5 P RB [4:0] $end
$var wire 5 Q RW [4:0] $end
$var wire 1 . RegWr $end
$var wire 64 R BusB [63:0] $end
$var wire 64 S BusA [63:0] $end
$upscope $end
$scope module SignExt $end
$var wire 26 T Imm25 [25:0] $end
$var wire 64 U temp [63:0] $end
$var wire 3 V Ctrl [2:0] $end
$var reg 64 W BusImm [63:0] $end
$var reg 1 X extBit $end
$upscope $end
$scope module control $end
$var wire 11 Y opcode [10:0] $end
$var reg 4 Z aluop [3:0] $end
$var reg 1 ; alusrc $end
$var reg 1 : branch $end
$var reg 1 7 mem2reg $end
$var reg 1 6 memread $end
$var reg 1 5 memwrite $end
$var reg 1 1 reg2loc $end
$var reg 1 . regwrite $end
$var reg 3 [ signop [2:0] $end
$var reg 1 * uncond_branch $end
$upscope $end
$scope module imem $end
$var wire 64 \ Address [63:0] $end
$var reg 32 ] Data [31:0] $end
$upscope $end
$upscope $end
$scope task allPassed $end
$var reg 8 ^ numTests [7:0] $end
$var reg 8 _ passed [7:0] $end
$upscope $end
$scope task passTest $end
$var reg 64 ` actualOut [63:0] $end
$var reg 64 a expectedOut [63:0] $end
$var reg 8 b passed [7:0] $end
$var reg 257 c testType [256:0] $end
$upscope $end
$upscope $end
$enddefinitions $end
#0
$dumpvars
bx c
bx b
bx a
bx `
bx _
bx ^
bx ]
bx \
bx [
bx Z
bx Y
xX
bx W
bx V
b0xxxxxxxxxxxxxxxxxxxxxxxxxxxxxxxxxxxxxxxxxxxxxxxxxxxxxxxxxxxxx U
bx T
bx S
bx R
bx Q
bx P
bx O
bx N
bx M
bx L
bx K
b0 J
b100000 I
bx H
bx G
bx F
bx E
bx D
bx C
bx B
bx A
bx @
bx ?
bx >
bx =
bx <
x;
x:
bx 9
bx 8
x7
x6
x5
bx 4
bx 3
bx 2
x1
bx 0
bx /
x.
bx -
bx ,
bx +
x*
x)
b0 (
b0 '
b0 &
b0 %
1$
0#
bx "
bx !
$end
#60000
1#
#120000
b1 '
0#
#121000
0$
#180000
1#
#240000
b10 '
0#
#243000
b100 4
b100 M
b0 @
b0 B
b0 9
b0 L
b0 W
0X
b11111 U
b1 +
b1 V
b1 [
b10 =
b10 D
b10 Z
0*
0:
05
16
1.
17
1;
b0x00x ,
b0x00x P
b10000000000001111101001 T
b11111000010 3
b11111000010 Y
b11111 -
b11111 O
b1001 2
b1001 Q
b11111000010000000000001111101001 8
b11111000010000000000001111101001 ]
b0 !
b0 A
b0 K
b0 \
#245000
1)
b0 <
b0 E
b0 F
b0 0
b0 C
b0 S
#300000
b1 "
b1 ?
b1 N
b1 >
b1 H
1$
1#
#360000
b11 '
0#
#363000
0)
b1000 <
b1000 E
b1000 F
b1000 4
b1000 M
b1000 @
b1000 B
b1000 9
b1000 L
b1000 W
b10000011111 U
b0x0x0 ,
b0x0x0 P
b10000001000001111101010 T
b1010 2
b1010 Q
b11111000010000001000001111101010 8
b11111000010000001000001111101010 ]
b100 !
b100 A
b100 K
b100 \
#420000
b1010 "
b1010 ?
b1010 N
b1010 >
b1010 H
1#
#480000
b100 '
0#
#483000
b10000 <
b10000 E
b10000 F
b1100 4
b1100 M
b10000 @
b10000 B
b10000 9
b10000 L
b10000 W
b100000011111 U
b0x0x1 ,
b0x0x1 P
b10000010000001111101011 T
b1011 2
b1011 Q
b11111000010000010000001111101011 8
b11111000010000010000001111101011 ]
b1000 !
b1000 A
b1000 K
b1000 \
#540000
b101 "
b101 ?
b101 N
b101 >
b101 H
1#
#600000
b101 '
0#
#603000
b11000 <
b11000 E
b11000 F
b10000 4
b10000 M
b11000 @
b11000 B
b11000 9
b11000 L
b11000 W
b110000011111 U
b0xx0x ,
b0xx0x P
b10000011000001111101100 T
b1100 2
b1100 Q
b11111000010000011000001111101100 8
b11111000010000011000001111101100 ]
b1100 !
b1100 A
b1100 K
b1100 \
#660000
b111111111011111010100111110111101010110110111110111011111111 "
b111111111011111010100111110111101010110110111110111011111111 ?
b111111111011111010100111110111101010110110111110111011111111 N
b111111111011111010100111110111101010110110111110111011111111 >
b111111111011111010100111110111101010110110111110111011111111 H
1#
#720000
b110 '
0#
#723000
b100000 <
b100000 E
b100000 F
b10100 4
b10100 M
b100000 @
b100000 B
b100000 9
b100000 L
b100000 W
b1000000011111 U
b0xxxx ,
b0xxxx P
b10000100000001111101101 T
b1101 2
b1101 Q
b11111000010000100000001111101101 8
b11111000010000100000001111101101 ]
b10000 !
b10000 A
b10000 K
b10000 \
#780000
b0 "
b0 ?
b0 N
b0 >
b0 H
1#
#840000
b111 '
0#
#843000
x)
bx <
bx E
bx F
b11000 4
b11000 M
bx "
bx ?
bx N
bx @
bx B
b101100000001010 U
bx +
bx V
bx [
b1 =
b1 D
b1 Z
06
07
0;
01
b1011 ,
b1011 P
b10000010110000000101001010 T
b10101010000 3
b10101010000 Y
b1010 -
b1010 O
b1010 2
b1010 Q
b10101010000010110000000101001010 8
b10101010000010110000000101001010 ]
b10100 !
b10100 A
b10100 K
b10100 \
#845000
b1111 "
b1111 ?
b1111 N
0)
b1111 <
b1111 E
b1111 F
b101 @
b101 B
b101 /
b101 G
b101 R
b1010 0
b1010 C
b1010 S
#900000
1#
#960000
b1000 '
0#
#963000
b0 "
b0 ?
b0 N
1)
b0 <
b0 E
b0 F
b11100 4
b11100 M
b101000000001100 U
b0 =
b0 D
b0 Z
b1010 ,
b1010 P
b10000010100000000110001100 T
b10001010000 3
b10001010000 Y
b1100 -
b1100 O
b1100 2
b1100 Q
b10001010000010100000000110001100 8
b10001010000010100000000110001100 ]
b11000 !
b11000 A
b11000 K
b11000 \
#965000
b1111 "
b1111 ?
b1111 N
0)
b1111 <
b1111 E
b1111 F
b1111 @
b1111 B
b1111 /
b1111 G
b1111 R
b111111111011111010100111110111101010110110111110111011111111 0
b111111111011111010100111110111101010110110111110111011111111 C
b111111111011111010100111110111101010110110111110111011111111 S
#1020000
1#
#1080000
b1001 '
0#
#1083000
b100000 4
b100000 M
b0xxxx "
b0xxxx ?
b0xxxx N
b100 9
b100 L
b100 W
b100 U
b11 +
b11 V
b11 [
b111 =
b111 D
b111 Z
1:
0.
x7
11
b1100 ,
b1100 P
b10001100 T
b10110100000 3
b10110100000 Y
b100 -
b100 O
b10110100000000000000000010001100 8
b10110100000000000000000010001100 ]
b11100 !
b11100 A
b11100 K
b11100 \
#1085000
bx 0
bx C
bx S
#1140000
1#
#1200000
b1010 '
0#
#1203000
x)
bx <
bx E
bx F
b100100 4
b100100 M
bx "
bx ?
bx N
b100100000001101 U
bx +
bx V
bx [
b10 =
b10 D
b10 Z
0:
1.
07
01
b1001 ,
b1001 P
b11000010010000000110101101 T
b10001011000 3
b10001011000 Y
b1101 -
b1101 O
b1101 2
b1101 Q
b10001011000010010000000110101101 8
b10001011000010010000000110101101 ]
b100000 !
b100000 A
b100000 K
b100000 \
#1205000
b1 "
b1 ?
b1 N
0)
b1 <
b1 E
b1 F
b1 @
b1 B
b1 /
b1 G
b1 R
b0 0
b0 C
b0 S
#1260000
1#
#1320000
b1011 '
0#
#1323000
b1111111111111111111111111111111111111111111111111111111111111111 "
b1111111111111111111111111111111111111111111111111111111111111111 ?
b1111111111111111111111111111111111111111111111111111111111111111 N
b1111111111111111111111111111111111111111111111111111111111111111 <
b1111111111111111111111111111111111111111111111111111111111111111 E
b1111111111111111111111111111111111111111111111111111111111111111 F
b101000 4
b101000 M
b100100000001100 U
b110 =
b110 D
b110 Z
b11000010010000000110001100 T
b11001011000 3
b11001011000 Y
b1100 -
b1100 O
b1100 2
b1100 Q
b11001011000010010000000110001100 8
b11001011000010010000000110001100 ]
b100100 !
b100100 A
b100100 K
b100100 \
#1325000
b1110 "
b1110 ?
b1110 N
b1110 <
b1110 E
b1110 F
b1111 0
b1111 C
b1111 S
#1380000
1#
#1440000
b1100 '
0#
#1443000
b11100 4
b11100 M
b0xxx0 "
b0xxx0 ?
b0xxx0 N
bx01 @
bx01 B
b1111111111111111111111111111111111111111111111111111111111111101 9
b1111111111111111111111111111111111111111111111111111111111111101 L
b1111111111111111111111111111111111111111111111111111111111111101 W
1X
b1111111111111111111111111111111111111111111111111111111111111 U
b10 +
b10 V
b10 [
bx =
bx D
bx Z
1*
x:
0.
x7
x;
x1
b111x1 ,
b111x1 P
b11111111111111111111111101 T
b10111111 3
b10111111 Y
b11111 -
b11111 O
b11101 2
b11101 Q
b10111111111111111111111111101 8
b10111111111111111111111111101 ]
b101000 !
b101000 A
b101000 K
b101000 \
#1445000
bx @
bx B
bx /
bx G
bx R
b0 0
b0 C
b0 S
#1500000
1#
#1560000
b1101 '
0#
#1563000
bx "
bx ?
bx N
x)
bx <
bx E
bx F
b100000 4
b100000 M
b100 9
b100 L
b100 W
0X
b100 U
b11 +
b11 V
b11 [
b111 =
b111 D
b111 Z
0*
1:
0;
11
b1100 ,
b1100 P
b10001100 T
b10110100000 3
b10110100000 Y
b100 -
b100 O
b1100 2
b1100 Q
b10110100000000000000000010001100 8
b10110100000000000000000010001100 ]
b11100 !
b11100 A
b11100 K
b11100 \
#1565000
b0xxx0 "
b0xxx0 ?
b0xxx0 N
0)
b1110 <
b1110 E
b1110 F
b1110 @
b1110 B
b1110 /
b1110 G
b1110 R
bx 0
bx C
bx S
#1620000
1#
#1680000
b1110 '
0#
#1683000
x)
bx <
bx E
bx F
b100100 4
b100100 M
bx "
bx ?
bx N
b100100000001101 U
bx +
bx V
bx [
b10 =
b10 D
b10 Z
0:
1.
07
01
b1001 ,
b1001 P
b11000010010000000110101101 T
b10001011000 3
b10001011000 Y
b1101 -
b1101 O
b1101 2
b1101 Q
b10001011000010010000000110101101 8
b10001011000010010000000110101101 ]
b100000 !
b100000 A
b100000 K
b100000 \
#1685000
b10 "
b10 ?
b10 N
0)
b10 <
b10 E
b10 F
b1 @
b1 B
b1 /
b1 G
b1 R
b1 0
b1 C
b1 S
#1740000
1#
#1800000
b1111 '
0#
#1803000
b0 "
b0 ?
b0 N
1)
b0 <
b0 E
b0 F
b101000 4
b101000 M
b100100000001100 U
b110 =
b110 D
b110 Z
b11000010010000000110001100 T
b11001011000 3
b11001011000 Y
b1100 -
b1100 O
b1100 2
b1100 Q
b11001011000010010000000110001100 8
b11001011000010010000000110001100 ]
b100100 !
b100100 A
b100100 K
b100100 \
#1805000
b1101 "
b1101 ?
b1101 N
0)
b1101 <
b1101 E
b1101 F
b1110 0
b1110 C
b1110 S
#1860000
1#
#1920000
b10000 '
0#
#1923000
b11100 4
b11100 M
b0xx0x "
b0xx0x ?
b0xx0x N
bx01 @
bx01 B
b1111111111111111111111111111111111111111111111111111111111111101 9
b1111111111111111111111111111111111111111111111111111111111111101 L
b1111111111111111111111111111111111111111111111111111111111111101 W
1X
b1111111111111111111111111111111111111111111111111111111111111 U
b10 +
b10 V
b10 [
bx =
bx D
bx Z
1*
x:
0.
x7
x;
x1
b111x1 ,
b111x1 P
b11111111111111111111111101 T
b10111111 3
b10111111 Y
b11111 -
b11111 O
b11101 2
b11101 Q
b10111111111111111111111111101 8
b10111111111111111111111111101 ]
b101000 !
b101000 A
b101000 K
b101000 \
#1925000
bx @
bx B
bx /
bx G
bx R
b0 0
b0 C
b0 S
#1980000
1#
#2040000
b10001 '
0#
#2043000
bx "
bx ?
bx N
x)
bx <
bx E
bx F
b100000 4
b100000 M
b100 9
b100 L
b100 W
0X
b100 U
b11 +
b11 V
b11 [
b111 =
b111 D
b111 Z
0*
1:
0;
11
b1100 ,
b1100 P
b10001100 T
b10110100000 3
b10110100000 Y
b100 -
b100 O
b1100 2
b1100 Q
b10110100000000000000000010001100 8
b10110100000000000000000010001100 ]
b11100 !
b11100 A
b11100 K
b11100 \
#2045000
b0xx0x "
b0xx0x ?
b0xx0x N
0)
b1101 <
b1101 E
b1101 F
b1101 @
b1101 B
b1101 /
b1101 G
b1101 R
bx 0
bx C
bx S
#2100000
1#
#2160000
b10010 '
0#
#2163000
x)
bx <
bx E
bx F
b100100 4
b100100 M
bx "
bx ?
bx N
b100100000001101 U
bx +
bx V
bx [
b10 =
b10 D
b10 Z
0:
1.
07
01
b1001 ,
b1001 P
b11000010010000000110101101 T
b10001011000 3
b10001011000 Y
b1101 -
b1101 O
b1101 2
b1101 Q
b10001011000010010000000110101101 8
b10001011000010010000000110101101 ]
b100000 !
b100000 A
b100000 K
b100000 \
#2165000
b11 "
b11 ?
b11 N
0)
b11 <
b11 E
b11 F
b1 @
b1 B
b1 /
b1 G
b1 R
b10 0
b10 C
b10 S
#2220000
1#
#2280000
b10011 '
0#
#2283000
b1 "
b1 ?
b1 N
b1 <
b1 E
b1 F
b101000 4
b101000 M
b100100000001100 U
b110 =
b110 D
b110 Z
b11000010010000000110001100 T
b11001011000 3
b11001011000 Y
b1100 -
b1100 O
b1100 2
b1100 Q
b11001011000010010000000110001100 8
b11001011000010010000000110001100 ]
b100100 !
b100100 A
b100100 K
b100100 \
#2285000
b1100 "
b1100 ?
b1100 N
b1100 <
b1100 E
b1100 F
b1101 0
b1101 C
b1101 S
#2340000
1#
#2400000
b10100 '
0#
#2403000
b11100 4
b11100 M
b0xx00 "
b0xx00 ?
b0xx00 N
bx01 @
bx01 B
b1111111111111111111111111111111111111111111111111111111111111101 9
b1111111111111111111111111111111111111111111111111111111111111101 L
b1111111111111111111111111111111111111111111111111111111111111101 W
1X
b1111111111111111111111111111111111111111111111111111111111111 U
b10 +
b10 V
b10 [
bx =
bx D
bx Z
1*
x:
0.
x7
x;
x1
b111x1 ,
b111x1 P
b11111111111111111111111101 T
b10111111 3
b10111111 Y
b11111 -
b11111 O
b11101 2
b11101 Q
b10111111111111111111111111101 8
b10111111111111111111111111101 ]
b101000 !
b101000 A
b101000 K
b101000 \
#2405000
bx @
bx B
bx /
bx G
bx R
b0 0
b0 C
b0 S
#2460000
1#
#2520000
b10101 '
0#
#2523000
bx "
bx ?
bx N
x)
bx <
bx E
bx F
b100000 4
b100000 M
b100 9
b100 L
b100 W
0X
b100 U
b11 +
b11 V
b11 [
b111 =
b111 D
b111 Z
0*
1:
0;
11
b1100 ,
b1100 P
b10001100 T
b10110100000 3
b10110100000 Y
b100 -
b100 O
b1100 2
b1100 Q
b10110100000000000000000010001100 8
b10110100000000000000000010001100 ]
b11100 !
b11100 A
b11100 K
b11100 \
#2525000
b0xx00 "
b0xx00 ?
b0xx00 N
0)
b1100 <
b1100 E
b1100 F
b1100 @
b1100 B
b1100 /
b1100 G
b1100 R
bx 0
bx C
bx S
#2580000
1#
#2640000
b10110 '
0#
#2643000
x)
bx <
bx E
bx F
b100100 4
b100100 M
bx "
bx ?
bx N
b100100000001101 U
bx +
bx V
bx [
b10 =
b10 D
b10 Z
0:
1.
07
01
b1001 ,
b1001 P
b11000010010000000110101101 T
b10001011000 3
b10001011000 Y
b1101 -
b1101 O
b1101 2
b1101 Q
b10001011000010010000000110101101 8
b10001011000010010000000110101101 ]
b100000 !
b100000 A
b100000 K
b100000 \
#2645000
b100 "
b100 ?
b100 N
0)
b100 <
b100 E
b100 F
b1 @
b1 B
b1 /
b1 G
b1 R
b11 0
b11 C
b11 S
#2700000
1#
#2760000
b10111 '
0#
#2763000
b10 "
b10 ?
b10 N
b10 <
b10 E
b10 F
b101000 4
b101000 M
b100100000001100 U
b110 =
b110 D
b110 Z
b11000010010000000110001100 T
b11001011000 3
b11001011000 Y
b1100 -
b1100 O
b1100 2
b1100 Q
b11001011000010010000000110001100 8
b11001011000010010000000110001100 ]
b100100 !
b100100 A
b100100 K
b100100 \
#2765000
b1011 "
b1011 ?
b1011 N
b1011 <
b1011 E
b1011 F
b1100 0
b1100 C
b1100 S
#2820000
1#
#2880000
b11000 '
0#
#2883000
b11100 4
b11100 M
b0x0xx "
b0x0xx ?
b0x0xx N
bx01 @
bx01 B
b1111111111111111111111111111111111111111111111111111111111111101 9
b1111111111111111111111111111111111111111111111111111111111111101 L
b1111111111111111111111111111111111111111111111111111111111111101 W
1X
b1111111111111111111111111111111111111111111111111111111111111 U
b10 +
b10 V
b10 [
bx =
bx D
bx Z
1*
x:
0.
x7
x;
x1
b111x1 ,
b111x1 P
b11111111111111111111111101 T
b10111111 3
b10111111 Y
b11111 -
b11111 O
b11101 2
b11101 Q
b10111111111111111111111111101 8
b10111111111111111111111111101 ]
b101000 !
b101000 A
b101000 K
b101000 \
#2885000
bx @
bx B
bx /
bx G
bx R
b0 0
b0 C
b0 S
#2940000
1#
#3000000
b11001 '
0#
#3003000
bx "
bx ?
bx N
x)
bx <
bx E
bx F
b100000 4
b100000 M
b100 9
b100 L
b100 W
0X
b100 U
b11 +
b11 V
b11 [
b111 =
b111 D
b111 Z
0*
1:
0;
11
b1100 ,
b1100 P
b10001100 T
b10110100000 3
b10110100000 Y
b100 -
b100 O
b1100 2
b1100 Q
b10110100000000000000000010001100 8
b10110100000000000000000010001100 ]
b11100 !
b11100 A
b11100 K
b11100 \
#3005000
b0x0xx "
b0x0xx ?
b0x0xx N
0)
b1011 <
b1011 E
b1011 F
b1011 @
b1011 B
b1011 /
b1011 G
b1011 R
bx 0
bx C
bx S
#3060000
1#
#3120000
b11010 '
0#
#3123000
x)
bx <
bx E
bx F
b100100 4
b100100 M
bx "
bx ?
bx N
b100100000001101 U
bx +
bx V
bx [
b10 =
b10 D
b10 Z
0:
1.
07
01
b1001 ,
b1001 P
b11000010010000000110101101 T
b10001011000 3
b10001011000 Y
b1101 -
b1101 O
b1101 2
b1101 Q
b10001011000010010000000110101101 8
b10001011000010010000000110101101 ]
b100000 !
b100000 A
b100000 K
b100000 \
#3125000
b101 "
b101 ?
b101 N
0)
b101 <
b101 E
b101 F
b1 @
b1 B
b1 /
b1 G
b1 R
b100 0
b100 C
b100 S
#3180000
1#
#3240000
b11011 '
0#
#3243000
b11 "
b11 ?
b11 N
b11 <
b11 E
b11 F
b101000 4
b101000 M
b100100000001100 U
b110 =
b110 D
b110 Z
b11000010010000000110001100 T
b11001011000 3
b11001011000 Y
b1100 -
b1100 O
b1100 2
b1100 Q
b11001011000010010000000110001100 8
b11001011000010010000000110001100 ]
b100100 !
b100100 A
b100100 K
b100100 \
#3245000
b1010 "
b1010 ?
b1010 N
b1010 <
b1010 E
b1010 F
b1011 0
b1011 C
b1011 S
#3300000
1#
#3360000
b11100 '
0#
#3363000
b11100 4
b11100 M
b0x0x0 "
b0x0x0 ?
b0x0x0 N
bx01 @
bx01 B
b1111111111111111111111111111111111111111111111111111111111111101 9
b1111111111111111111111111111111111111111111111111111111111111101 L
b1111111111111111111111111111111111111111111111111111111111111101 W
1X
b1111111111111111111111111111111111111111111111111111111111111 U
b10 +
b10 V
b10 [
bx =
bx D
bx Z
1*
x:
0.
x7
x;
x1
b111x1 ,
b111x1 P
b11111111111111111111111101 T
b10111111 3
b10111111 Y
b11111 -
b11111 O
b11101 2
b11101 Q
b10111111111111111111111111101 8
b10111111111111111111111111101 ]
b101000 !
b101000 A
b101000 K
b101000 \
#3365000
bx @
bx B
bx /
bx G
bx R
b0 0
b0 C
b0 S
#3420000
1#
#3480000
b11101 '
0#
#3483000
bx "
bx ?
bx N
x)
bx <
bx E
bx F
b100000 4
b100000 M
b100 9
b100 L
b100 W
0X
b100 U
b11 +
b11 V
b11 [
b111 =
b111 D
b111 Z
0*
1:
0;
11
b1100 ,
b1100 P
b10001100 T
b10110100000 3
b10110100000 Y
b100 -
b100 O
b1100 2
b1100 Q
b10110100000000000000000010001100 8
b10110100000000000000000010001100 ]
b11100 !
b11100 A
b11100 K
b11100 \
#3485000
b0x0x0 "
b0x0x0 ?
b0x0x0 N
0)
b1010 <
b1010 E
b1010 F
b1010 @
b1010 B
b1010 /
b1010 G
b1010 R
bx 0
bx C
bx S
#3540000
1#
#3600000
b11110 '
0#
#3603000
x)
bx <
bx E
bx F
b100100 4
b100100 M
bx "
bx ?
bx N
b100100000001101 U
bx +
bx V
bx [
b10 =
b10 D
b10 Z
0:
1.
07
01
b1001 ,
b1001 P
b11000010010000000110101101 T
b10001011000 3
b10001011000 Y
b1101 -
b1101 O
b1101 2
b1101 Q
b10001011000010010000000110101101 8
b10001011000010010000000110101101 ]
b100000 !
b100000 A
b100000 K
b100000 \
#3605000
b110 "
b110 ?
b110 N
0)
b110 <
b110 E
b110 F
b1 @
b1 B
b1 /
b1 G
b1 R
b101 0
b101 C
b101 S
#3660000
1#
#3720000
b11111 '
0#
#3723000
b100 "
b100 ?
b100 N
b100 <
b100 E
b100 F
b101000 4
b101000 M
b100100000001100 U
b110 =
b110 D
b110 Z
b11000010010000000110001100 T
b11001011000 3
b11001011000 Y
b1100 -
b1100 O
b1100 2
b1100 Q
b11001011000010010000000110001100 8
b11001011000010010000000110001100 ]
b100100 !
b100100 A
b100100 K
b100100 \
#3725000
b1001 "
b1001 ?
b1001 N
b1001 <
b1001 E
b1001 F
b1010 0
b1010 C
b1010 S
#3780000
1#
#3840000
b100000 '
0#
#3843000
b11100 4
b11100 M
b0x00x "
b0x00x ?
b0x00x N
bx01 @
bx01 B
b1111111111111111111111111111111111111111111111111111111111111101 9
b1111111111111111111111111111111111111111111111111111111111111101 L
b1111111111111111111111111111111111111111111111111111111111111101 W
1X
b1111111111111111111111111111111111111111111111111111111111111 U
b10 +
b10 V
b10 [
bx =
bx D
bx Z
1*
x:
0.
x7
x;
x1
b111x1 ,
b111x1 P
b11111111111111111111111101 T
b10111111 3
b10111111 Y
b11111 -
b11111 O
b11101 2
b11101 Q
b10111111111111111111111111101 8
b10111111111111111111111111101 ]
b101000 !
b101000 A
b101000 K
b101000 \
#3845000
bx @
bx B
bx /
bx G
bx R
b0 0
b0 C
b0 S
#3900000
1#
#3960000
b100001 '
0#
#3963000
bx "
bx ?
bx N
x)
bx <
bx E
bx F
b100000 4
b100000 M
b100 9
b100 L
b100 W
0X
b100 U
b11 +
b11 V
b11 [
b111 =
b111 D
b111 Z
0*
1:
0;
11
b1100 ,
b1100 P
b10001100 T
b10110100000 3
b10110100000 Y
b100 -
b100 O
b1100 2
b1100 Q
b10110100000000000000000010001100 8
b10110100000000000000000010001100 ]
b11100 !
b11100 A
b11100 K
b11100 \
#3965000
b0x00x "
b0x00x ?
b0x00x N
0)
b1001 <
b1001 E
b1001 F
b1001 @
b1001 B
b1001 /
b1001 G
b1001 R
bx 0
bx C
bx S
#4020000
1#
#4080000
b100010 '
0#
#4083000
x)
bx <
bx E
bx F
b100100 4
b100100 M
bx "
bx ?
bx N
b100100000001101 U
bx +
bx V
bx [
b10 =
b10 D
b10 Z
0:
1.
07
01
b1001 ,
b1001 P
b11000010010000000110101101 T
b10001011000 3
b10001011000 Y
b1101 -
b1101 O
b1101 2
b1101 Q
b10001011000010010000000110101101 8
b10001011000010010000000110101101 ]
b100000 !
b100000 A
b100000 K
b100000 \
#4085000
b111 "
b111 ?
b111 N
0)
b111 <
b111 E
b111 F
b1 @
b1 B
b1 /
b1 G
b1 R
b110 0
b110 C
b110 S
#4140000
1#
#4200000
b100011 '
0#
#4203000
b101 "
b101 ?
b101 N
b101 <
b101 E
b101 F
b101000 4
b101000 M
b100100000001100 U
b110 =
b110 D
b110 Z
b11000010010000000110001100 T
b11001011000 3
b11001011000 Y
b1100 -
b1100 O
b1100 2
b1100 Q
b11001011000010010000000110001100 8
b11001011000010010000000110001100 ]
b100100 !
b100100 A
b100100 K
b100100 \
#4205000
b1000 "
b1000 ?
b1000 N
b1000 <
b1000 E
b1000 F
b1001 0
b1001 C
b1001 S
#4260000
1#
#4320000
b100100 '
0#
#4323000
b11100 4
b11100 M
b0x000 "
b0x000 ?
b0x000 N
bx01 @
bx01 B
b1111111111111111111111111111111111111111111111111111111111111101 9
b1111111111111111111111111111111111111111111111111111111111111101 L
b1111111111111111111111111111111111111111111111111111111111111101 W
1X
b1111111111111111111111111111111111111111111111111111111111111 U
b10 +
b10 V
b10 [
bx =
bx D
bx Z
1*
x:
0.
x7
x;
x1
b111x1 ,
b111x1 P
b11111111111111111111111101 T
b10111111 3
b10111111 Y
b11111 -
b11111 O
b11101 2
b11101 Q
b10111111111111111111111111101 8
b10111111111111111111111111101 ]
b101000 !
b101000 A
b101000 K
b101000 \
#4325000
bx @
bx B
bx /
bx G
bx R
b0 0
b0 C
b0 S
#4380000
1#
#4440000
b100101 '
0#
#4443000
bx "
bx ?
bx N
x)
bx <
bx E
bx F
b100000 4
b100000 M
b100 9
b100 L
b100 W
0X
b100 U
b11 +
b11 V
b11 [
b111 =
b111 D
b111 Z
0*
1:
0;
11
b1100 ,
b1100 P
b10001100 T
b10110100000 3
b10110100000 Y
b100 -
b100 O
b1100 2
b1100 Q
b10110100000000000000000010001100 8
b10110100000000000000000010001100 ]
b11100 !
b11100 A
b11100 K
b11100 \
#4445000
b0x000 "
b0x000 ?
b0x000 N
0)
b1000 <
b1000 E
b1000 F
b1000 @
b1000 B
b1000 /
b1000 G
b1000 R
bx 0
bx C
bx S
#4500000
1#
#4560000
b100110 '
0#
#4563000
x)
bx <
bx E
bx F
b100100 4
b100100 M
bx "
bx ?
bx N
b100100000001101 U
bx +
bx V
bx [
b10 =
b10 D
b10 Z
0:
1.
07
01
b1001 ,
b1001 P
b11000010010000000110101101 T
b10001011000 3
b10001011000 Y
b1101 -
b1101 O
b1101 2
b1101 Q
b10001011000010010000000110101101 8
b10001011000010010000000110101101 ]
b100000 !
b100000 A
b100000 K
b100000 \
#4565000
b1000 "
b1000 ?
b1000 N
0)
b1000 <
b1000 E
b1000 F
b1 @
b1 B
b1 /
b1 G
b1 R
b111 0
b111 C
b111 S
#4620000
1#
#4680000
b100111 '
0#
#4683000
b110 "
b110 ?
b110 N
b110 <
b110 E
b110 F
b101000 4
b101000 M
b100100000001100 U
b110 =
b110 D
b110 Z
b11000010010000000110001100 T
b11001011000 3
b11001011000 Y
b1100 -
b1100 O
b1100 2
b1100 Q
b11001011000010010000000110001100 8
b11001011000010010000000110001100 ]
b100100 !
b100100 A
b100100 K
b100100 \
#4685000
b111 "
b111 ?
b111 N
b111 <
b111 E
b111 F
b1000 0
b1000 C
b1000 S
#4740000
1#
#4800000
b101000 '
0#
#4803000
b11100 4
b11100 M
b0xxx "
b0xxx ?
b0xxx N
bx01 @
bx01 B
b1111111111111111111111111111111111111111111111111111111111111101 9
b1111111111111111111111111111111111111111111111111111111111111101 L
b1111111111111111111111111111111111111111111111111111111111111101 W
1X
b1111111111111111111111111111111111111111111111111111111111111 U
b10 +
b10 V
b10 [
bx =
bx D
bx Z
1*
x:
0.
x7
x;
x1
b111x1 ,
b111x1 P
b11111111111111111111111101 T
b10111111 3
b10111111 Y
b11111 -
b11111 O
b11101 2
b11101 Q
b10111111111111111111111111101 8
b10111111111111111111111111101 ]
b101000 !
b101000 A
b101000 K
b101000 \
#4805000
bx @
bx B
bx /
bx G
bx R
b0 0
b0 C
b0 S
#4860000
1#
#4920000
b101001 '
0#
#4923000
bx "
bx ?
bx N
x)
bx <
bx E
bx F
b100000 4
b100000 M
b100 9
b100 L
b100 W
0X
b100 U
b11 +
b11 V
b11 [
b111 =
b111 D
b111 Z
0*
1:
0;
11
b1100 ,
b1100 P
b10001100 T
b10110100000 3
b10110100000 Y
b100 -
b100 O
b1100 2
b1100 Q
b10110100000000000000000010001100 8
b10110100000000000000000010001100 ]
b11100 !
b11100 A
b11100 K
b11100 \
